{
  "project_info": {
    "project_number": "783131828244",
    "firebase_url": "https://market-be7a1.firebaseio.com",
    "project_id": "market-be7a1",
    "storage_bucket": "market-be7a1.appspot.com"
  },
  "client": [
    {
      "client_info": {
        "mobilesdk_app_id": "1:783131828244:android:9faf667c51963d8a",
        "android_client_info": {
          "package_name": "com.online.market"
        }
      },
      "oauth_client": [
        {
          "client_id": "783131828244-v2v9bfqv25ar85tqrrs5n8a33pgjj8qq.apps.googleusercontent.com",
          "client_type": 1,
          "android_info": {
            "package_name": "com.online.market",
            "certificate_hash": "27612eb1d5f830406e25208d19675283a4159c5a"
          }
        },
        {
          "client_id": "783131828244-o6ugbem2gdunvl4tfol7is7sopu0dv42.apps.googleusercontent.com",
          "client_type": 3
        }
      ],
      "api_key": [
        {
          "current_key": "AIzaSyAW2iOAlH_Pshp5Ukns4fNBVluiYBfROGE"
        }
      ],
      "services": {
        "analytics_service": {
          "status": 1
        },
        "appinvite_service": {
          "status": 2,
          "other_platform_oauth_client": [
            {
              "client_id": "783131828244-o6ugbem2gdunvl4tfol7is7sopu0dv42.apps.googleusercontent.com",
              "client_type": 3
            }
          ]
        },
        "ads_service": {
          "status": 2
        }
      }
    }
  ],
  "configuration_version": "1"
}